{
    "object-name":"Полусферический ангар в Юхнове",
    "object-state":"Новый",
    "object-desc-short":"С электообогревом",
    "object-desc":"Используется как склад ракетных двигателей",
    "object-params":{
        "0":{
            "param":"длина",
            "value":69
        },
        "1":{
            "param":"ширина",
            "value":34
        },
        "2":{
            "param":"площадь",
            "value":819
        }
    },
    "object-ref-text":"г. Юхнов. Построен в 1954 г. за 3 полгоды"
}